{
    "sites": {
        "mhd": {"chi": 1, "d_13C": 1},
        "hfd": {"chi": 1, "d_13C": 2, "d_2H": 2},
        "tac": {"chi": 1},
        "cbw020": {"chi": 1, "d_13C": 1, "d_2H": 1}
    },
    "y_vars": {
        "mhd": ["chi", "d_13C"],
        "hfd": ["chi"],
        "tac": ["chi"],
        "cbw020": ["chi", "d_13C", "d_2H"]
    },
    "theta_vars": ["chi0", "d0i1", "d0i2", "Q", "dQ"],
    "baseline_files": {
        "chi": ["/home/ec5/name_qch4_couple/baseline/mhd_all_YEAR.nc", "chi"],
        "d_13C": ["/home/ec5/name_qch4_couple/baseline/mhd_all_YEAR.nc", "d_13C"],
        "d_2H": ["/home/ec5/name_qch4_couple/baseline/mhd_all_YEAR.nc", "d_2H"]
    }
}
